…
    ## [1] "D:/ISLR"

### Figure 1.1

This requires us to load the `Wage` data. Let’s load the data and look
at it

``` r
Wage = as_tibble(Wage)
Wage
```

    ## # A tibble: 3,000 x 11
    ##     year   age maritl race  education region jobclass health health_ins
    ##    <int> <int> <fct>  <fct> <fct>     <fct>  <fct>    <fct>  <fct>     
    ##  1  2006    18 1. Ne~ 1. W~ 1. < HS ~ 2. Mi~ 1. Indu~ 1. <=~ 2. No     
    ##  2  2004    24 1. Ne~ 1. W~ 4. Colle~ 2. Mi~ 2. Info~ 2. >=~ 2. No     
    ##  3  2003    45 2. Ma~ 1. W~ 3. Some ~ 2. Mi~ 1. Indu~ 1. <=~ 1. Yes    
    ##  4  2003    43 2. Ma~ 3. A~ 4. Colle~ 2. Mi~ 2. Info~ 2. >=~ 1. Yes    
    ##  5  2005    50 4. Di~ 1. W~ 2. HS Gr~ 2. Mi~ 2. Info~ 1. <=~ 1. Yes    
    ##  6  2008    54 2. Ma~ 1. W~ 4. Colle~ 2. Mi~ 2. Info~ 2. >=~ 1. Yes    
    ##  7  2009    44 2. Ma~ 4. O~ 3. Some ~ 2. Mi~ 1. Indu~ 2. >=~ 1. Yes    
    ##  8  2008    30 1. Ne~ 3. A~ 3. Some ~ 2. Mi~ 2. Info~ 1. <=~ 1. Yes    
    ##  9  2006    41 1. Ne~ 2. B~ 3. Some ~ 2. Mi~ 2. Info~ 2. >=~ 1. Yes    
    ## 10  2004    52 2. Ma~ 1. W~ 2. HS Gr~ 2. Mi~ 2. Info~ 2. >=~ 1. Yes    
    ## # ... with 2,990 more rows, and 2 more variables: logwage <dbl>,
    ## #   wage <dbl>
…
    ## Saving 7 x 5 in image

### Figure 1.2

This plot uses `Smarket` data. Loading…

``` r
Smarket <- as_tibble(Smarket)
Smarket
```

    ## # A tibble: 1,250 x 9
    ##     Year   Lag1   Lag2   Lag3   Lag4   Lag5 Volume  Today Direction
    ##    <dbl>  <dbl>  <dbl>  <dbl>  <dbl>  <dbl>  <dbl>  <dbl> <fct>    
    ##  1  2001  0.381 -0.192 -2.62  -1.06   5.01    1.19  0.959 Up       
    ##  2  2001  0.959  0.381 -0.192 -2.62  -1.06    1.30  1.03  Up       
    ##  3  2001  1.03   0.959  0.381 -0.192 -2.62    1.41 -0.623 Down     
    ##  4  2001 -0.623  1.03   0.959  0.381 -0.192   1.28  0.614 Up       
    ##  5  2001  0.614 -0.623  1.03   0.959  0.381   1.21  0.213 Up       
    ##  6  2001  0.213  0.614 -0.623  1.03   0.959   1.35  1.39  Up       
    ##  7  2001  1.39   0.213  0.614 -0.623  1.03    1.44 -0.403 Down     
    ##  8  2001 -0.403  1.39   0.213  0.614 -0.623   1.41  0.027 Up       
    ##  9  2001  0.027 -0.403  1.39   0.213  0.614   1.16  1.30  Up       
    ## 10  2001  1.30   0.027 -0.403  1.39   0.213   1.23  0.287 Up       
    ## # ... with 1,240 more rows
…
